"WEEK","READS","OTUs"
10,100,38
10,163,53
10,226,75
10,290,91
10,353,104
10,416,124
10,479,135
10,542,152
10,605,143
10,668,149
10,731,166
10,794,175
10,857,183
10,920,194
10,983,203
10,1046,215
10,1109,221
10,1172,238
10,1235,247
11,101,46
11,191,46
11,281,58
11,371,62
11,461,63
11,551,73
11,641,84
11,731,97
11,821,106
11,911,119
11,1001,128
11,1091,146
11,1182,152
11,1272,160
11,1362,172
11,1452,179
11,1542,142
11,1632,144
11,1722,149
12,100,11
12,2478,58
12,4853,95
12,7230,77
12,9611,103
12,11989,123
12,14362,157
12,16738,176
12,19111,191
12,21488,215
12,23863,203
12,26236,217
12,28613,236
12,30988,234
12,33369,257
12,35746,279
12,38127,283
12,40503,297
12,42877,311
12,45251,326
13,100,34
13,1243,86
13,2385,126
13,3529,181
13,4674,216
13,5819,256
13,6961,275
13,8104,320
13,9247,351
13,10389,385
13,11531,394
13,12673,429
13,13815,446
13,14960,480
13,16102,509
13,17246,536
13,18390,556
13,19532,579
13,20674,613
13,21817,627
14,100,43
14,347,103
14,594,170
14,842,181
14,1089,226
14,1336,251
14,1584,281
14,1831,327
14,2079,341
14,2326,376
14,2573,409
14,2820,427
14,3067,447
14,3315,443
14,3563,465
14,3810,467
14,4057,491
14,4304,513
14,4552,514
14,4799,522
15,100,54
15,612,80
15,1124,143
15,1636,160
15,2149,185
15,2660,184
15,3171,201
15,3682,219
15,4193,244
15,4704,278
15,5215,296
15,5726,315
15,6238,341
15,6751,360
15,7262,374
15,7773,398
15,8286,408
15,8799,426
15,9310,395
15,9821,415
16,100,40
16,224,80
16,348,102
16,472,129
16,596,145
16,721,172
16,845,191
16,969,208
16,1093,234
16,1217,247
16,1341,266
16,1465,282
16,1589,299
16,1713,296
16,1837,294
16,1962,309
16,2086,315
16,2210,336
16,2334,308
16,2458,317
17,100,59
17,138,79
17,176,76
17,214,90
17,252,103
17,290,107
17,328,118
17,366,133
17,404,147
17,442,161
17,480,182
17,518,179
17,557,191
17,595,179
17,633,192
17,671,203
17,709,213
17,747,224
18,100,64
18,160,92
18,220,112
18,280,140
18,340,149
18,400,163
18,460,182
18,520,205
18,580,223
18,640,245
18,700,261
18,760,282
18,820,302
18,880,315
18,940,340
18,1000,350
18,1060,365
18,1120,347
18,1180,337
19,100,53
19,314,141
19,528,166
19,742,209
19,956,228
19,1170,259
19,1384,288
19,1598,299
19,1812,306
19,2027,343
19,2241,364
19,2455,393
19,2669,407
19,2884,426
19,3098,436
19,3312,430
19,3527,440
19,3741,454
19,3956,470
19,4170,486
1,0,0
20,100,47
20,192,95
20,284,129
20,376,171
20,468,210
20,560,217
20,652,246
20,744,275
20,836,307
20,928,343
20,1020,363
20,1112,394
20,1204,415
20,1296,437
20,1388,468
20,1480,498
20,1572,502
20,1665,527
20,1757,550
20,1849,581
21,100,73
21,167,95
21,234,85
21,301,111
21,368,120
21,435,120
21,502,126
21,569,141
21,636,142
21,703,156
21,770,167
21,838,153
21,905,170
21,972,169
21,1039,181
21,1106,188
21,1173,201
21,1240,202
21,1307,214
22,101,74
22,146,102
22,191,122
22,236,129
22,281,140
22,326,149
22,371,170
22,416,184
22,461,201
22,506,216
22,551,231
22,596,242
22,641,249
22,686,269
22,731,275
22,776,287
22,821,297
22,866,312
23,0,0
24,100,47
24,170,69
24,240,86
24,310,86
24,380,92
24,450,104
24,520,117
24,590,123
24,660,139
24,731,151
24,801,159
24,871,166
24,941,179
24,1011,191
24,1082,193
24,1152,167
24,1222,176
24,1292,179
24,1362,175
25,100,60
25,210,113
25,320,136
25,431,135
25,541,158
25,651,168
25,761,174
25,871,187
25,981,196
25,1091,212
25,1201,209
25,1311,228
25,1422,232
25,1532,238
25,1642,253
25,1752,267
25,1862,272
25,1972,285
25,2082,298
25,2192,315
26,100,52
26,143,66
26,186,86
26,229,96
26,272,94
26,315,115
26,358,112
26,401,130
26,444,138
26,487,152
26,530,166
26,573,175
26,616,188
26,659,200
26,702,210
26,745,226
26,788,240
26,831,256
27,100,55
27,322,122
27,544,187
27,766,221
27,988,282
27,1211,294
27,1433,302
27,1655,339
27,1877,379
27,2099,395
27,2321,434
27,2543,452
27,2765,480
27,2987,502
27,3209,527
27,3432,559
27,3655,601
27,3877,614
27,4099,611
27,4322,630
28,100,45
28,175,52
28,251,65
28,326,87
28,402,111
28,477,123
28,553,140
28,628,133
28,703,147
28,778,158
28,853,179
28,928,180
28,1003,187
28,1078,202
28,1153,210
28,1228,211
28,1303,210
28,1378,218
28,1453,223
29,100,28
29,299,69
29,498,82
29,697,112
29,896,130
29,1096,154
29,1295,166
29,1496,180
29,1695,175
29,1894,191
29,2093,199
29,2292,210
29,2491,211
29,2690,222
29,2889,232
29,3088,241
29,3287,241
29,3487,242
29,3686,255
29,3885,272
2,0,0
30,100,37
30,191,51
30,282,72
30,375,91
30,466,80
30,558,96
30,649,108
30,740,104
30,831,84
30,922,94
30,1013,102
30,1104,108
30,1195,113
30,1286,113
30,1377,114
30,1468,118
30,1559,103
30,1650,110
30,1741,118
31,100,70
31,171,110
31,242,132
31,314,155
31,385,166
31,456,175
31,527,202
31,598,219
31,669,238
31,740,262
31,811,256
31,882,272
31,953,280
31,1024,286
31,1095,302
31,1166,296
31,1237,286
31,1308,305
31,1379,306
32,100,62
32,144,82
32,188,108
32,232,124
32,276,140
32,320,150
32,364,168
32,408,191
32,452,201
32,496,213
32,540,225
32,584,231
32,629,244
32,673,253
32,717,262
32,761,267
32,805,280
32,849,288
33,100,50
33,182,79
33,264,114
33,346,114
33,428,132
33,510,158
33,593,180
33,675,201
33,757,189
33,839,201
33,921,222
33,1003,218
33,1085,233
33,1167,258
33,1251,275
33,1333,294
33,1415,313
33,1497,210
33,1579,227
34,100,81
34,157,96
34,214,130
34,271,147
34,328,172
34,385,192
34,442,215
34,500,194
34,557,203
34,614,226
34,671,239
34,728,254
34,785,257
34,843,273
34,900,264
34,957,271
34,1014,283
34,1071,289
34,1128,303
35,100,60
35,196,96
35,292,145
35,388,130
35,484,150
35,580,186
35,676,213
35,772,245
35,868,245
35,964,256
35,1060,280
35,1156,308
35,1252,328
35,1348,338
35,1444,333
35,1540,357
35,1636,284
35,1732,302
35,1829,316
35,1925,328
36,100,28
36,236,56
36,372,80
36,508,93
36,644,110
36,780,127
36,916,135
36,1052,148
36,1188,164
36,1324,174
36,1460,192
36,1596,207
36,1732,222
36,1868,199
36,2004,221
36,2140,242
36,2276,252
36,2412,255
36,2548,269
36,2684,282
37,100,18
37,124,20
37,148,22
37,172,26
37,196,27
37,220,29
37,244,34
37,268,34
37,292,36
37,316,31
37,340,32
37,365,23
37,389,24
37,413,27
37,437,28
37,461,33
37,485,34
38,100,43
38,1106,48
38,2112,43
38,3118,63
38,4125,86
38,5134,109
38,6143,132
38,7149,124
38,8155,140
38,9162,152
38,10168,139
38,11175,151
38,12181,142
38,13187,142
38,14195,146
38,15204,142
38,16210,154
38,17217,172
38,18223,185
38,19229,199
39,100,16
39,286,41
39,472,37
39,658,56
39,844,69
39,1030,83
39,1216,85
39,1403,97
39,1589,118
39,1775,94
39,1961,97
39,2147,104
39,2333,115
39,2519,119
39,2705,125
39,2891,137
39,3077,142
39,3263,154
39,3449,170
39,3635,178
3,100,32
3,105,32
40,0,0
4,100,30
4,109,32
4,118,34
4,127,37
4,136,40
4,145,44
4,154,48
4,163,51
4,172,54
4,181,40
4,190,42
4,199,44
5,0,0
6,0,0
7,100,68
7,113,75
7,126,86
7,139,95
7,152,83
7,165,88
7,178,98
7,191,103
7,204,108
7,217,118
7,230,108
7,243,99
7,256,104
8,0,0
9,100,75
9,229,171
9,358,211
9,487,292
9,617,349
9,746,427
9,875,463
9,1004,537
9,1133,603
9,1262,674
9,1391,736
9,1520,805
9,1649,868
9,1778,930
9,1907,996
9,2036,1060
9,2165,1128
9,2294,1192
9,2423,1237
9,2552,1295
